007e CMSG_MAP_PING                     clif->pUseSkillToPosMoreInfo           6 vs  105
0085 CMSG_CHAT_MESSAGE                 clif->pChangeDir                      -1 vs   10
0089 CMSG_PLAYER_CHANGE_ACT            clif->pTickSend                        7 vs   11
009b CMSG_PLAYER_CHANGE_DIR            clif->pWantToConnection                5 vs   34
00f5 CMSG_MOVE_FROM_STORAGE            clif->pTakeItem                        8 vs   11
0116 CMSG_SKILL_USE_POSITION           clif->pDropItem                       10 vs   17
0190 CMSG_SKILL_USE_POSITION_MORE      clif->pActionRequest                  90 vs   23
0202 CMSG_FRIENDS_ADD_PLAYER           clif->pChangeDir                      26 vs    5
0819 CMSG_SEARCHSTORE_SEARCH           clif->pStoragePassword                -1 vs   36
0838 CMSG_SEARCHSTORE_NEXT_PAGE        clif->pSearchStoreInfoListItemClick    2 vs   12
